{
  "previous": "https://otx.alienvault.com/api/v1/pulses/subscribed?page=997",
  "prefetch_pulse_ids": false,
  "t3": 1.7299716472625732,
  "count": 134456,
  "t": 0,
  "next": "https://otx.alienvault.com/api/v1/pulses/subscribed?page=999",
  "results": [
    {
      "author_name": "CyberHunterAutoFeed",
      "malware_families": [],
      "more_indicators": false,
      "references": [
        "https://twitter.com/TrackerC2Bot/status/1670129416855248896"
      ],
      "targeted_countries": [],
      "created": "2023-06-17T23:32:43.350000",
      "description": "",
      "indicators": [],
      "extract_source": [],
      "adversary": "",
      "revision": 1,
      "tags": [
        "malware"
      ],
      "public": 1,
      "industries": [],
      "name": "Twitter Feed - TrackerC2Bot - 17-06-2023",
      "modified": "2023-07-17T23:00:00.066000",
      "tlp": "green",
      "attack_ids": [],
      "id": "648e429b3f9f53ead458aed6"
    },
    {
      "author_name": "CyberHunterAutoFeed",
      "malware_families": [],
      "more_indicators": false,
      "references": [
        "https://twitter.com/balkanssec/status/1670095766893854730"
      ],
      "targeted_countries": [],
      "created": "2023-06-17T23:32:40.404000",
      "description": "",
      "indicators": [],
      "extract_source": [],
      "adversary": "",
      "revision": 1,
      "tags": [
        "malware"
      ],
      "public": 1,
      "industries": [],
      "name": "Twitter Feed - balkanssec - 17-06-2023",
      "modified": "2023-07-17T23:00:00.066000",
      "tlp": "green",
      "attack_ids": [],
      "id": "648e4298b1d2a6e9172a7faf"
    },
    {
      "author_name": "CyberHunterAutoFeed",
      "malware_families": [],
      "more_indicators": false,
      "references": [
        "https://twitter.com/Jane_0sint/status/1670048531665518592"
      ],
      "targeted_countries": [],
      "created": "2023-06-17T23:32:37.232000",
      "description": "",
      "indicators": [],
      "extract_source": [],
      "adversary": "",
      "revision": 1,
      "tags": [],
      "public": 1,
      "industries": [],
      "name": "Twitter Feed - Jane_0sint - 17-06-2023",
      "modified": "2023-07-17T23:00:00.066000",
      "tlp": "green",
      "attack_ids": [],
      "id": "648e4295a23d05aba14aa967"
    },
    {
      "author_name": "CyberHunterAutoFeed",
      "malware_families": [],
      "more_indicators": false,
      "references": [
        "https://twitter.com/0xToxin/status/1670042835855261696"
      ],
      "targeted_countries": [],
      "created": "2023-06-17T23:32:36.465000",
      "description": "",
      "indicators": [
        {
          "indicator": "promotores14.duckdns.org",
          "is_active": 1,
          "role": null,
          "created": "2023-06-17T23:32:37",
          "description": "",
          "expiration": null,
          "id": 3698231616,
          "type": "hostname",
          "title": "",
          "content": ""
        }
      ],
      "extract_source": [],
      "adversary": "",
      "revision": 1,
      "tags": [
        "AsyncRAT"
      ],
      "public": 1,
      "industries": [],
      "name": "Twitter Feed - 0xToxin - 17-06-2023",
      "modified": "2023-07-17T23:00:00.066000",
      "tlp": "green",
      "attack_ids": [],
      "id": "648e429465b2a2af5a63a68b"
    },
    {
      "author_name": "CyberHunterAutoFeed",
      "malware_families": [],
      "more_indicators": false,
      "references": [
        "https://twitter.com/malwrhunterteam/status/1670005948272848902",
        "https://twitter.com/malwrhunterteam/status/1670006608477188098",
        "https://twitter.com/malwrhunterteam/status/1670007218115059715",
        "https://twitter.com/malwrhunterteam/status/1670008062298451968",
        "https://twitter.com/malwrhunterteam/status/1670017886939693057",
        "https://twitter.com/malwrhunterteam/status/1670018915710164992",
        "https://twitter.com/malwrhunterteam/status/1670019536928624640",
        "https://twitter.com/malwrhunterteam/status/1670021877647958016",
        "https://twitter.com/malwrhunterteam/status/1670023354869248003",
        "https://twitter.com/malwrhunterteam/status/1670029531682336768",
        "https://twitter.com/malwrhunterteam/status/1670030801562480641",
        "https://twitter.com/malwrhunterteam/status/1670033859109421058",
        "https://twitter.com/malwrhunterteam/status/1670037304570773505",
        "https://twitter.com/malwrhunterteam/status/1670041630378688512",
        "https://twitter.com/malwrhunterteam/status/1670044038727180288",
        "https://twitter.com/malwrhunterteam/status/1670046728815345667",
        "https://twitter.com/malwrhunterteam/status/1670047559237226501",
        "https://twitter.com/malwrhunterteam/status/1670178551277006848",
        "https://twitter.com/malwrhunterteam/status/1670185417558073347",
        "https://twitter.com/malwrhunterteam/status/1670199565729906690"
      ],
      "targeted_countries": [],
      "created": "2023-06-17T23:32:34.901000",
      "description": "",
      "indicators": [
        {
          "indicator": "qe6evcafs0.execute-api.us-east-1.amazonaws.com",
          "is_active": 1,
          "role": null,
          "created": "2023-06-17T23:32:35",
          "description": "",
          "expiration": null,
          "id": 3608246225,
          "type": "hostname",
          "title": "",
          "content": ""
        },
        {
          "indicator": "03e5469d27cd104a15bf0183ba09325107b91919c501f162944f827977bf0fc9",
          "is_active": 1,
          "role": null,
          "created": "2023-06-17T23:32:35",
          "description": "",
          "expiration": null,
          "id": 3698812166,
          "type": "FileHash-SHA256",
          "title": "",
          "content": ""
        },
        {
          "indicator": "http://121.40.114.53/222222cmd.txt",
          "is_active": 1,
          "role": null,
          "created": "2023-06-17T23:32:35",
          "description": "",
          "expiration": null,
          "id": 3698812167,
          "type": "URL",
          "title": "",
          "content": ""
        },
        {
          "indicator": "http://121.40.114.53/222222payload.txt",
          "is_active": 1,
          "role": null,
          "created": "2023-06-17T23:32:35",
          "description": "",
          "expiration": null,
          "id": 3698812168,
          "type": "URL",
          "title": "",
          "content": ""
        },
        {
          "indicator": "3606e7e9d9260144c6b19fc4ab03f0ef9f4e9dfe4fd53c13ede586e078c40f25",
          "is_active": 1,
          "role": null,
          "created": "2023-06-17T23:32:35",
          "description": "",
          "expiration": null,
          "id": 3698812169,
          "type": "FileHash-SHA256",
          "title": "",
          "content": ""
        },
        {
          "indicator": "1c859c80194c48e3a558a8184388540d45ed9fd776f2673a9f9fc04105617865",
          "is_active": 1,
          "role": null,
          "created": "2023-06-17T23:32:35",
          "description": "",
          "expiration": null,
          "id": 3698812170,
          "type": "FileHash-SHA256",
          "title": "",
          "content": ""
        },
        {
          "indicator": "5b8fa612cf5051638cc6afb8e8164f3195a8a47801228d3857d4c92feef97963",
          "is_active": 1,
          "role": null,
          "created": "2023-06-17T23:32:35",
          "description": "",
          "expiration": null,
          "id": 3698812171,
          "type": "FileHash-SHA256",
          "title": "",
          "content": ""
        },
        {
          "indicator": "d8deb2f6438d10d2074af107303547465d250827cf9b49d63c3543f22771972e",
          "is_active": 1,
          "role": null,
          "created": "2023-06-17T23:32:35",
          "description": "",
          "expiration": null,
          "id": 3698812174,
          "type": "FileHash-SHA256",
          "title": "",
          "content": ""
        },
        {
          "indicator": "jcc-api.com",
          "is_active": 1,
          "role": null,
          "created": "2023-06-17T23:32:35",
          "description": "",
          "expiration": null,
          "id": 3698812175,
          "type": "domain",
          "title": "",
          "content": ""
        },
        {
          "indicator": "334c4bc983069810e941423de61e5b26f39bc5d8a7941d47308e8b930dd3c2ce",
          "is_active": 1,
          "role": null,
          "created": "2023-06-17T23:32:35",
          "description": "",
          "expiration": null,
          "id": 3698812176,
          "type": "FileHash-SHA256",
          "title": "",
          "content": ""
        },
        {
          "indicator": "jccupdate.com",
          "is_active": 1,
          "role": null,
          "created": "2023-06-17T23:32:35",
          "description": "",
          "expiration": null,
          "id": 3698812177,
          "type": "domain",
          "title": "",
          "content": ""
        },
        {
          "indicator": "ade23be1257b5406cac8770d81e9ce4af9873dbe360d0a63b1c17ba357b7070c",
          "is_active": 1,
          "role": null,
          "created": "2023-06-17T23:32:35",
          "description": "",
          "expiration": null,
          "id": 3698812178,
          "type": "FileHash-SHA256",
          "title": "",
          "content": ""
        },
        {
          "indicator": "12d56a86c25463bf37e1d8792bef26c15b9257db69d9f0f1639075ebb3a025ef",
          "is_active": 1,
          "role": null,
          "created": "2023-06-17T23:32:35",
          "description": "",
          "expiration": null,
          "id": 3698812179,
          "type": "FileHash-SHA256",
          "title": "",
          "content": ""
        },
        {
          "indicator": "581578638ff2cfcc38c6955f7480a2893fc6f241d43360e9d4895a04f8c08304",
          "is_active": 1,
          "role": null,
          "created": "2023-06-17T23:32:35",
          "description": "",
          "expiration": null,
          "id": 3698812180,
          "type": "FileHash-SHA256",
          "title": "",
          "content": ""
        },
        {
          "indicator": "static.digisert-telemetry.com",
          "is_active": 1,
          "role": null,
          "created": "2023-06-17T23:32:35",
          "description": "",
          "expiration": null,
          "id": 3698812181,
          "type": "hostname",
          "title": "",
          "content": ""
        },
        {
          "indicator": "a065f5ac2e1d1951084e7323584cadcc74209ce3a9edd5151a019d21e2b40ee5",
          "is_active": 1,
          "role": null,
          "created": "2023-06-17T23:32:35",
          "description": "",
          "expiration": null,
          "id": 3698812182,
          "type": "FileHash-SHA256",
          "title": "",
          "content": ""
        },
        {
          "indicator": "aff7b20907db426ab886cbdab6d5f15afd0310c5b2629ff32a4a617340f0d46d",
          "is_active": 1,
          "role": null,
          "created": "2023-06-17T23:32:35",
          "description": "",
          "expiration": null,
          "id": 3698812183,
          "type": "FileHash-SHA256",
          "title": "",
          "content": ""
        },
        {
          "indicator": "0256a52f662d22a17ed582a786bc553a14ded4bcd324375f04baf8a534a6c713",
          "is_active": 1,
          "role": null,
          "created": "2023-06-17T23:32:35",
          "description": "",
          "expiration": null,
          "id": 3698812184,
          "type": "FileHash-SHA256",
          "title": "",
          "content": ""
        },
        {
          "indicator": "b7637156b7917bfc1827bd10e3593bf44d3304b424fbfe6fc07a99c653e0cfa6",
          "is_active": 1,
          "role": null,
          "created": "2023-06-17T23:32:35",
          "description": "",
          "expiration": null,
          "id": 3698812185,
          "type": "FileHash-SHA256",
          "title": "",
          "content": ""
        }
      ],
      "extract_source": [],
      "adversary": "",
      "revision": 1,
      "tags": [],
      "public": 1,
      "industries": [],
      "name": "Twitter Feed - malwrhunterteam - 17-06-2023",
      "modified": "2023-07-17T23:00:00.066000",
      "tlp": "green",
      "attack_ids": [],
      "id": "648e4292d5509e223192b47a"
    }
  ],
  "id": "e1a63493-a08d-4151-8f79-ce7da1afb335",
  "t2": 0.17147207260131836
}